Project 2: Modeling, Testing, and Predicting
…
#samp_distn%>%t%>%as.data.frame%>%summarize_all(sd,na.rm=T)

The results of the bootstrapped standard errors changed compared to the original standard errors, so the significance of some of the p values would also change. For instance, the original standard errors for the significant values of coefficients were 0.946 for P.aff, 1.098 for P.bi, 1.603 for P.foet, 1.238 for P.lut, and 1.955 for hostP.sub:sexM. The bootstrapped SEs were 0.777 for P.aff, 0.855 for P.bi, 1.469 for P.foet, 1.023 for P.lut, and 2.031 for hostP.sub:sexM.

#logistic regression with binary variable
perf2<-perf%>%filter(!is.na(condition))%>%filter(host!="P.fil",condition!="Pop up")%>%
  mutate(condition=recode(condition,"16 oz"="16.oz"))
#removed irrelevant variables and renamed redundant label
perf2

## # A tibble: 823 x 7
## host condition pupal.weight sex survival.larvae.pupae
survival.pupae.adult time.larvae.adult
## <chr> <chr> <dbl> <chr> <dbl> <dbl> <dbl>
## 1 P.sub 16.oz 0.304 F 1 1 25
## 2 P.sub 16.oz NA <NA> 0 NA NA
## 3 P.sub 16.oz NA <NA> 0 NA NA
## 4 P.lut 16.oz 0.263 M 1 1 20
## 5 P.lut 16.oz 0.315 F 1 1 25
## 6 P.lut 16.oz 0.354 F 1 1 25
## 7 P.lut 16.oz 0.275 M 1 1 21
## 8 P.sub 16.oz 0.323 F 1 1 24
## 9 P.sub 16.oz 0.264 <NA> 1 0 NA
## 10 P.foet 16.oz NA <NA> 0 NA NA
## # … with 813 more rows
…
