…
I chose to keep all the coronavirus data and have the happiness variables as an additional factor (not all countries in the coronavirus dataset are on the happiness dataset). The coronavirus data is also logged by day, so it is important to retain each datapoint to conduct accurate analyses. No cases were dropped.

# new variable MortalityRate
world1 <- worlddata %>% separate(DateRep, into = c("day", "month", 
    "year"), sep = "/") %>% unite(year, month, day, col = "date", 
    sep = "-", remove = F) %>% arrange(Country, date) %>% group_by(Country) %>% 
    mutate(MortalityRate = cumsum(NewDeaths)/cumsum(NewConfCases))

world1 %>% arrange(desc(date))

## # A tibble: 5,001 x 18
## # Groups:   Country [122]
##    date  day   month year  Country NewConfCases NewDeaths GeoId EU   
##    <chr> <chr> <chr> <chr> <chr>          <int>     <int> <fct> <fct>
##  1 2020… 9     3     2020  Albania            2         0 AL    EU C…
##  2 2020… 9     3     2020  Algeria            3         0 DZ    Non-…
##  3 2020… 9     3     2020  Argent…            3         0 AR    Non-…
##  4 2020… 9     3     2020  Austra…            6         0 AU    Non-…
##  5 2020… 9     3     2020  Austria            3         0 AT    EU   
##  6 2020… 9     3     2020  Bahrain           16         0 BH    Non-…
##  7 2020… 9     3     2020  Bangla…            3         0 BD    Non-…
##  8 2020… 9     3     2020  Belgium           31         0 BE    EU   
##  9 2020… 9     3     2020  Brazil            12         0 BR    Non-…
## 10 2020… 9     3     2020  Bulgar…            2         0 BG    EU   
## # … with 4,991 more rows, and 9 more variables: Overall.rank <int>,
## #   Score <dbl>, GDP.per.capita <dbl>, Social.support <dbl>,
## #   Healthy.life.expectancy <dbl>, Freedom.to.make.life.choices <dbl>,
## #   Generosity <dbl>, Perceptions.of.corruption <dbl>, MortalityRate <dbl>

world1 %>% group_by(Country) %>% na.omit(MortalityRate) %>% summarize(mean(MortalityRate))

## # A tibble: 105 x 2
##    Country     `mean(MortalityRate)`
##    <chr>                       <dbl>
##  1 Afghanistan               0      
##  2 Albania                   0.0104 
##  3 Algeria                   0.232  
##  4 Argentina                 0.0442 
##  5 Armenia                   0      
##  6 Australia                 0.00191
##  7 Austria                   0.00316
##  8 Azerbaijan                0      
##  9 Bahrain                   0      
## 10 Bangladesh                0      
## # … with 95 more rows
…
worlddata %>% group_by(EU, Country) %>% summarize(mean(Score, 
    na.rm = T), sd(Score, na.rm = T), var(Score, na.rm = T), 
    min(Score, na.rm = T), max(Score, na.rm = T), n_distinct(Score, 
        na.rm = T))

## # A tibble: 122 x 8
## # Groups:   EU [7]
##    EU    Country `mean(Score, na… `sd(Score, na.r… `var(Score, na.…
##    <fct> <chr>              <dbl>            <dbl>            <dbl>
##  1 0     Cases …           NaN                  NA               NA
##  2 EEA   Iceland             7.49                0                0
##  3 EEA   Liecht…           NaN                  NA               NA
##  4 EEA   Norway              7.55                0                0
##  5 EU    Austria             7.25                0                0
##  6 EU    Belgium             6.92                0                0
##  7 EU    Bulgar…             5.01                0                0
##  8 EU    Croatia             5.43                0                0
##  9 EU    Cyprus              6.05                0                0
## 10 EU    Czech …             6.85                0                0
## # … with 112 more rows, and 3 more variables: `min(Score, na.rm = T)` <dbl>,
## #   `max(Score, na.rm = T)` <dbl>, `n_distinct(Score, na.rm = T)` <int>

worlddata %>% group_by(Country) %>% summarize(mean(Social.support, 
    na.rm = T), sd(Social.support, na.rm = T), var(Social.support, 
    na.rm = T), min(Social.support, na.rm = T), max(Social.support, 
    na.rm = T), n_distinct(Social.support, na.rm = T)) %>% pivot_longer(cols = c(contains("="))) %>% 
    separate(name, into = c("stat"), sep = "T")

## # A tibble: 732 x 3
##    Country     stat                                  value
##    <chr>       <chr>                                 <dbl>
##  1 Afghanistan "mean(Social.support, na.rm = "       0.517
##  2 Afghanistan "sd(Social.support, na.rm = "         0    
##  3 Afghanistan "var(Social.support, na.rm = "        0    
##  4 Afghanistan "min(Social.support, na.rm = "        0.517
##  5 Afghanistan "max(Social.support, na.rm = "        0.517
##  6 Afghanistan "n_distinct(Social.support, na.rm = " 1    
##  7 Albania     "mean(Social.support, na.rm = "       0.848
##  8 Albania     "sd(Social.support, na.rm = "         0    
##  9 Albania     "var(Social.support, na.rm = "        0    
## 10 Albania     "min(Social.support, na.rm = "        0.848
## # … with 722 more rows
…
